<?xml version="1.0" encoding="UTF-8"?>
<!DOCTYPE suite SYSTEM "https://testng.org/testng-1.0.dtd">
<suite guice-stage="DEVELOPMENT" verbose="0" name="Failed suite [AppTrainers]">
  <test thread-count="5" verbose="0" name="googleSearch(failed)">
    <classes>
      <class name="com.examples.NewTest">
        <methods>
          <include name="googleTest"/>
          <include name="beforeTest"/>
          <include name="afterTest"/>
        </methods>
      </class> <!-- com.examples.NewTest -->
      <class name="com.examples.NewTest333">
        <methods>
          <include name="googleTest"/>
        </methods>
      </class> <!-- com.examples.NewTest333 -->
      <class name="com.examples.NewTest1">
        <methods>
          <include name="beforeTest"/>
          <include name="googleTest"/>
          <include name="afterTest"/>
        </methods>
      </class> <!-- com.examples.NewTest1 -->
    </classes>
  </test> <!-- googleSearch(failed) -->
</suite> <!-- Failed suite [AppTrainers] -->
