-------------------------------------------------------------------------------
Test set: TestSuite
-------------------------------------------------------------------------------
Tests run: 7, Failures: 1, Errors: 0, Skipped: 6, Time elapsed: 3.057 s <<< FAILURE! - in TestSuite
com.examples.NewTest1.beforeTest  Time elapsed: 2.516 s  <<< FAILURE!
org.openqa.selenium.SessionNotCreatedException: 
session not created: This version of ChromeDriver only supports Chrome version 79
Build info: version: '3.141.59', revision: 'e82be7d358', time: '2018-11-14T08:17:03'
System info: host: 'dr-emad-oddtallah.home', ip: 'fe80:0:0:0:838:fabc:6f4e:dbf6%en0', os.name: 'Mac OS X', os.arch: 'x86_64', os.version: '10.15.3', java.version: '1.8.0_231'
Driver info: driver.version: ChromeDriver
remote stacktrace: 0   chromedriver                        0x0000000106565e29 chromedriver + 3817001
1   chromedriver                        0x00000001064f9f33 chromedriver + 3374899
2   chromedriver                        0x000000010627a8bf chromedriver + 755903
3   chromedriver                        0x00000001061dadd2 chromedriver + 101842
4   chromedriver                        0x00000001061d6b00 chromedriver + 84736
5   chromedriver                        0x0000000106206018 chromedriver + 278552
6   chromedriver                        0x0000000106202fa3 chromedriver + 266147
7   chromedriver                        0x00000001061dcc0d chromedriver + 109581
8   chromedriver                        0x00000001061ddba5 chromedriver + 113573
9   chromedriver                        0x0000000106527f6f chromedriver + 3563375
10  chromedriver                        0x0000000106534e3a chromedriver + 3616314
11  chromedriver                        0x0000000106534bf7 chromedriver + 3615735
12  chromedriver                        0x0000000106507699 chromedriver + 3430041
13  chromedriver                        0x0000000106535692 chromedriver + 3618450
14  chromedriver                        0x000000010651be17 chromedriver + 3513879
15  chromedriver                        0x000000010654afe4 chromedriver + 3706852
16  chromedriver                        0x000000010656bfc7 chromedriver + 3841991
17  libsystem_pthread.dylib             0x00007fff6c05be65 _pthread_start + 148
18  libsystem_pthread.dylib             0x00007fff6c05783b thread_start + 15


